f , size , mask type , mask size , kernel time , Mpix/s , CPU time , overhead, 
f , 200 x 200 , edge , 3x3 , 40.182 , 1.00 ,  41.905 ,  1.723 , 
f , 200 x 200 , ave , 3x3 , 19.152 , 2.09 ,  20.774 ,  1.622 , 
f , 200 x 200 , ave , 5x5 , 16.990 , 2.35 ,  18.522 ,  1.532 , 
f , 200 x 200 , sharp , 3x3 , 15.301 , 2.61 ,  16.800 ,  1.499 , 
f , 200 x 200 , sharp , 5x5 , 15.689 , 2.55 ,  17.481 ,  1.792 , 
f , 512 x 512 , edge , 3x3 , 17.059 , 15.37 ,  24.464 ,  7.405 , 
f , 512 x 512 , ave , 3x3 , 17.328 , 15.13 ,  25.236 ,  7.908 , 
f , 512 x 512 , ave , 5x5 , 18.038 , 14.53 ,  25.525 ,  7.487 , 
f , 512 x 512 , sharp , 3x3 , 16.610 , 15.78 ,  24.207 ,  7.597 , 
f , 512 x 512 , sharp , 5x5 , 17.226 , 15.22 ,  24.664 ,  7.438 , 
f , 900 x 900 , edge , 3x3 , 19.753 , 41.01 ,  41.188 ,  21.435 , 
f , 900 x 900 , ave , 3x3 , 18.471 , 43.85 ,  39.919 ,  21.448 , 
f , 900 x 900 , ave , 5x5 , 22.481 , 36.03 ,  44.146 ,  21.665 , 
f , 900 x 900 , sharp , 3x3 , 17.827 , 45.44 ,  39.497 ,  21.670 , 
f , 900 x 900 , sharp , 5x5 , 21.281 , 38.06 ,  43.213 ,  21.932 , 
f , 2000 x 2000 , edge , 3x3 , 31.760 , 125.94 ,  139.432 ,  107.672 , 
f , 2000 x 2000 , ave , 3x3 , 31.096 , 128.63 ,  145.922 ,  114.826 , 
f , 2000 x 2000 , ave , 5x5 , 45.220 , 88.46 ,  157.571 ,  112.351 , 
f , 2000 x 2000 , sharp , 3x3 , 32.172 , 124.33 ,  145.561 ,  113.389 , 
f , 2000 x 2000 , sharp , 5x5 , 46.178 , 86.62 ,  158.734 ,  112.556 , 
f , 4000 x 4000 , edge , 3x3 , 63.296 , 252.78 ,  522.469 ,  459.173 , 
f , 4000 x 4000 , ave , 3x3 , 64.696 , 247.31 ,  528.035 ,  463.339 , 
f , 4000 x 4000 , ave , 5x5 , 159.163 , 100.53 ,  617.708 ,  458.545 , 
f , 4000 x 4000 , sharp , 3x3 , 61.005 , 262.27 ,  516.510 ,  455.505 , 
f , 4000 x 4000 , sharp , 5x5 , 147.906 , 108.18 ,  599.947 ,  452.041 , 
